{
  "companyName_fr": "Médiathèque Valais",
  "companyName_de": "Médiathek Wallis",
  "companyName_en": "Médiathèque Valais",
  "icons":[
    "fas fa-universal-access",
    "fas fa-arrow-left",
    "fas fa-arrow-right",
    "far fa-list-alt",
    "fas fa-chevron-circle-left",
    "fas fa-chevron-circle-right",
    "fas fa-chevron-left",
    "fas fa-chevron-right",
    "fas fa-home",
    "fas fa-info",
    "fas fa-lock",
    "fas fa-paper-plane",
    "fas fa-caret-down",
    "fas fa-search",
    "fas fa-upload",
    "fas fa-globe",
    "fab fa-facebook",
    "fab fa-whatsapp",
    "fab fa-youtube",
    "fab fa-linkedin",
    "fab fa-instagram",
    "fab fa-twitter",
    "fab fa-app-store-ios",
    "fab fa-google-play"
  ],
  "colors": [
    "primary",
    "secondary",
    "tertiary",
    "accent",
    "info",
    "success",
    "warning",
    "danger",
    "yellow",
    "white",
    "light",
    "dark"
  ],
  "gallery": [
    "https://source.unsplash.com/Po7XKYVp1Mc",
    "https://source.unsplash.com/YtY64RB3DFw",
    "https://source.unsplash.com/75CxJTYeUYs",
    "https://source.unsplash.com/rTZW4f02zY8",
    "https://source.unsplash.com/f7YQo-eYHdM",
    "https://source.unsplash.com/rG1LNUFgJhI",
    "https://source.unsplash.com/99neAF8kqhg"
  ],
  "restauration": [
    "Lu",
    "Ma",
    "Me",
    "Je",
    "Ve",
    "Sa",
    "Di"
  ],
  "people": [
    {
      "nom": "Buratto",
      "prenom": "Philip",
      "email": "philip.buratto@example.com",
      "photo_url": "https://images.unsplash.com/photo-1503443062224-9f77d743cf25?ixlib=rb-0.3.5&ixid=eyJhcHBfaWQiOjEyMDd9&s=81129fd559fa94dda68324798a6ad632&auto=format&fit=crop&w=2618&q=80",
      "people_url": "https://people.mediatheque.ch/philip.buratto",
      "functions": [
        "Staff"
      ],
      "phones" : [
        "34567"
      ],
      "rooms" : [
        "BM 4129"
      ]
    },
    {
      "nom": "Reeves O'Neill Edwards",
      "prenom": "Shawna",
      "email": "shawna.reeves.oneill.edwards@example.com",
      "photo_url": "",
      "people_url": "https://people.mediatheque.ch/shawna.reeves.oneill.edwards",
      "functions": [
        "Staff"
      ],
      "phones" : [
        "34868"
      ],
      "rooms" : [
        "BM 4129"
      ]
    },
    {
      "nom": "Camus",
      "prenom": "Vail",
      "email": "vail.camus@example.com",
      "photo_url": "https://cdn.plixs.com/uploads/preview/girl-2051733-10891527607591fgjvd0458b.jpg",
      "people_url": "https://people.mediatheque.ch/vail.camus",
      "functions": [
        "Staff"
      ],
      "phones" : [
        "31171"
      ],
      "rooms" : [
        "EM 3129"
      ]
    },
    {
      "nom": "Charbonneau",
      "prenom": "Amorette",
      "email": "amorette.charbonneau@example.com",
      "photo_url": "https://randomuser.me/api/portraits/women/3.jpg",
      "people_url": "https://people.mediatheque.ch/amorette.charbonneau",
      "functions": [
        "Staff"
      ],
      "phones" : [
        "31471"
      ],
      "rooms" : [
        "CM 3129"
      ]
    }
  ],
  "sites": [
    {
      "namefr": "Médiathèque Valais - Brigue",
      "namede": "Mediathek Wallis - Brig",
      "nameen": "Valais Media Library - Brig",
      "acronym": "MV-Brig",
      "urlfr": "https://www.mediatheque.ch/sites/brig/",
      "urlde": "https://www.mediatheque.ch/sites/brig/",
      "urlen": "https://www.mediatheque.ch/sites/brig/"
    },
    {
      "namefr": "Médiathèque Valais - Sion",
      "namede": "Mediathek Wallis - Sitten",
      "nameen": "Valais Media Library - Sion",
      "acronym": "MV-Sion",
      "urlfr": "https://www.mediatheque.ch/sites/sion/",
      "urlde": "https://www.mediatheque.ch/sites/sion/",
      "urlen": "https://www.mediatheque.ch/sites/sion/"
    },
    {
      "namefr": "Médiathèque Valais - Martigny",
      "namede": "Mediathek Wallis - Martinach",
      "nameen": "Valais Media Library - Martigny",
      "acronym": "MV-Martigny",
      "urlfr": "https://www.mediatheque.ch/sites/martigny/",
      "urlde": "https://www.mediatheque.ch/sites/martigny/",
      "urlen": "https://www.mediatheque.ch/sites/martigny/"
    },
    {
      "namefr": "Médiathèque Valais - St-Maurice",
      "namede": "Mediathek Wallis - St-Maurice",
      "nameen": "Valais Media Library - St-Maurice",
      "acronym": "MV-St-Maurice",
      "urlfr": "https://www.mediatheque.ch/sites/st-maurice/",
      "urlde": "https://www.mediatheque.ch/sites/st-maurice/",
      "urlen": "https://www.mediatheque.ch/sites/st-maurice/"
    }
  ],
  "navbar": [
    {
      "dropdown": true,
      "columns": "two",
      "namefr": "Emprunter",
      "namede": "Leihen",
      "nameen": "Borrow",
      "more": {
        "namefr": "Et plus encore",
        "namede": "Und more",
        "nameen": "And more",
        "urlfr": "https://www.mediatheque.ch/about/fr/a-propos/",
        "urlde": "https://www.mediatheque.ch/about/",
        "urlen": "https://www.mediatheque.ch/about/"
      },
      "suggest": {
        "namefr": "Proposer un achat",
        "namede": "Und more",
        "nameen": "And more",
        "urlfr": "https://www.mediatheque.ch/about/fr/a-propos/",
        "urlde": "https://www.mediatheque.ch/about/",
        "urlen": "https://www.mediatheque.ch/about/"
      },
      "childrens": [
        {
          "namefr": "Livres",
          "namede": "Büchen",
          "nameen": "Books",
          "urlfr": "https://www.mediatheque.ch/about/fr/a-propos/",
          "urlde": "https://www.mediatheque.ch/about/",
          "urlen": "https://www.mediatheque.ch/about/"
        },
        {
          "namefr": "eBooks",
          "namede": "eBooks",
          "nameen": "eBooks",
          "urlfr": "https://www.mediatheque.ch/about/fr/a-propos/",
          "urlde": "https://www.mediatheque.ch/about/",
          "urlen": "https://www.mediatheque.ch/about/"
        },
        {
          "namefr": "Films",
          "namede": "Films",
          "nameen": "Movies",
          "urlfr": "https://www.mediatheque.ch/about/fr/a-propos/",
          "urlde": "https://www.mediatheque.ch/about/",
          "urlen": "https://www.mediatheque.ch/about/"
        },
        {
          "namefr": "Presse",
          "namede": "Newspapers",
          "nameen": "Newspapers",
          "urlfr": "https://www.mediatheque.ch/about/fr/a-propos/",
          "urlde": "https://www.mediatheque.ch/about/",
          "urlen": "https://www.mediatheque.ch/about/"
        },
        {
          "namefr": "Musique",
          "namede": "Musik",
          "nameen": "Movies",
          "urlfr": "https://www.mediatheque.ch/about/fr/a-propos/",
          "urlde": "https://www.mediatheque.ch/about/",
          "urlen": "https://www.mediatheque.ch/about/"
        },
        {
          "namefr": "Nouveautés",
          "namede": "Neu",
          "nameen": "Movies",
          "urlfr": "https://www.mediatheque.ch/about/fr/a-propos/",
          "urlde": "https://www.mediatheque.ch/about/",
          "urlen": "https://www.mediatheque.ch/about/"
        },
        {
          "namefr": "Technologie",
          "namede": "Technology",
          "nameen": "Technology",
          "urlfr": "https://www.mediatheque.ch/about/fr/a-propos/",
          "urlde": "https://www.mediatheque.ch/about/",
          "urlen": "https://www.mediatheque.ch/about/"
        }
      ]
    },
    {
      "dropdown": true,
      "columns": "two",
      "namefr": "Rechercher",
      "namede": "Suchen",
      "nameen": "Research",
      "more": {
        "namefr": "Tout",
        "namede": "Alle",
        "nameen": "All",
        "urlfr": "https://www.mediatheque.ch/about/fr/a-propos/",
        "urlde": "https://www.mediatheque.ch/about/",
        "urlen": "https://www.mediatheque.ch/about/"
      },
      "childrens": [
        {
          "namefr": "Business",
          "namede": "Business",
          "nameen": "Business",
          "urlfr": "https://www.mediatheque.ch/about/fr/a-propos/",
          "urlde": "https://www.mediatheque.ch/about/",
          "urlen": "https://www.mediatheque.ch/about/"
        },
        {
          "namefr": "Généalogie",
          "namede": "Genealogy",
          "nameen": "Genealogy",
          "urlfr": "https://www.mediatheque.ch/about/fr/a-propos/",
          "urlde": "https://www.mediatheque.ch/about/",
          "urlen": "https://www.mediatheque.ch/about/"
        }
      ]
    },
    {
      "dropdown": true,
      "columns": "one",
      "namefr": "Services",
      "namede": "Services",
      "nameen": "Services",
      "more": {
        "namefr": "Tout",
        "namede": "Alle",
        "nameen": "All",
        "urlfr": "https://www.mediatheque.ch/about/fr/a-propos/",
        "urlde": "https://www.mediatheque.ch/about/",
        "urlen": "https://www.mediatheque.ch/about/"
      },
      "childrens": [
        {
          "namefr": "Se faire une carte",
          "namede": "How to Get a Card",
          "nameen": "How to Get a Card",
          "urlfr": "https://www.mediatheque.ch/about/fr/a-propos/",
          "urlde": "https://www.mediatheque.ch/about/",
          "urlen": "https://www.mediatheque.ch/about/"
        },
        {
          "namefr": "item",
          "namede": "item",
          "nameen": "item",
          "urlfr": "https://www.mediatheque.ch/about/fr/a-propos/",
          "urlde": "https://www.mediatheque.ch/about/",
          "urlen": "https://www.mediatheque.ch/about/"
        }
      ]
    },
    {
      "dropdown": true,
      "columns": "one",
      "namefr": "Espaces",
      "namede": "Spaces",
      "nameen": "Spaces",
      "more": {
        "namefr": "Tout",
        "namede": "Alle",
        "nameen": "All",
        "urlfr": "https://www.mediatheque.ch/about/fr/a-propos/",
        "urlde": "https://www.mediatheque.ch/about/",
        "urlen": "https://www.mediatheque.ch/about/"
      },
      "childrens": [
        {
          "namefr": "Makerspace",
          "namede": "Makerspace",
          "nameen": "Makerspace",
          "urlfr": "https://www.mediatheque.ch/about/fr/a-propos/",
          "urlde": "https://www.mediatheque.ch/about/",
          "urlen": "https://www.mediatheque.ch/about/"
        },
        {
          "namefr": "item",
          "namede": "item",
          "nameen": "item",
          "urlfr": "https://www.mediatheque.ch/about/fr/a-propos/",
          "urlde": "https://www.mediatheque.ch/about/",
          "urlen": "https://www.mediatheque.ch/about/"
        }
      ]
    },
    {
      "dropdown": true,
      "columns": "one",
      "namefr": "Événements",
      "namede": "Events",
      "nameen": "Events",
      "more": {
        "namefr": "Tout",
        "namede": "Alle",
        "nameen": "All",
        "urlfr": "https://www.mediatheque.ch/about/fr/a-propos/",
        "urlde": "https://www.mediatheque.ch/about/",
        "urlen": "https://www.mediatheque.ch/about/"
      },
      "suggest": {
        "namefr": "Proposer une activité communautaire",
        "namede": "Suggest",
        "nameen": "Suggest a communitary activity",
        "urlfr": "https://www.mediatheque.ch/about/fr/a-propos/",
        "urlde": "https://www.mediatheque.ch/about/",
        "urlen": "https://www.mediatheque.ch/about/"
      },
      "childrens": [
        {
          "namefr": "Makerspace",
          "namede": "Makerspace",
          "nameen": "Makerspace",
          "urlfr": "https://www.mediatheque.ch/about/fr/a-propos/",
          "urlde": "https://www.mediatheque.ch/about/",
          "urlen": "https://www.mediatheque.ch/about/"
        },
        {
          "namefr": "Sugérer un événement",
          "namede": "item",
          "nameen": "item",
          "urlfr": "https://www.mediatheque.ch/about/fr/a-propos/",
          "urlde": "https://www.mediatheque.ch/about/",
          "urlen": "https://www.mediatheque.ch/about/"
        }
      ]
    },
    {
      "dropdown": false,
      "columns": "one",
      "namefr": "La MV",
      "namede": "Die MV",
      "nameen": "The MV"
    }
  ],
  "header": [
    {
      "namefr": "Emprunter",
      "nameen": "Borrow",
      "namede": "Leihen",
      "urlfr": "https://www.mediatheque.ch/",
      "urlen": "https://www.mediatheque.ch/"
    },
    {
      "namefr": "Rechercher",
      "nameen": "Search",
      "namede": "Suchen",
      "urlfr": "https://www.mediatheque.ch/",
      "urlen": "https://www.mediatheque.ch/"
    },
    {
      "namefr": "Services",
      "nameen": "Services",
      "namede": "Services",
      "urlfr": "https://www.mediatheque.ch/",
      "urlen": "https://www.mediatheque.ch/"
    },
    {
      "namefr": "Espaces",
      "nameen": "Spaces",
      "namede": "Spaces",
      "urlfr": "https://www.mediatheque.ch/",
      "urlen": "https://www.mediatheque.ch/"
    },
    {
      "namefr": "Evénements",
      "nameen": "Events",
      "namede": "Events",
      "urlfr": "https://www.mediatheque.ch/",
      "urlen": "https://www.mediatheque.ch/"
    },
    {
      "namefr": "La MV",
      "namede": "Die MV",
      "nameen": "The MV"
    }
  ],
  "footer": [
    {
      "headingfr": "À propos",
      "headingen": "About",
      "items": [
        {
          "namefr": "Mission et charte",
          "urlfr": "https://www.mediatheque.ch/about/",
          "nameen": "Mission",
          "urlen": "https://www.mediatheque.ch/about/"
        },
        {
          "namefr": "Rapport annuel",
          "urlfr": "https://www.mediatheque.ch/about/",
          "nameen": "Annual report",
          "urlen": "https://www.mediatheque.ch/about/"
        }
      ]
    },
    {
      "headingfr": "Services",
      "headingen": "Services",
      "items": [
        {
          "namefr": "Emprunter",
          "urlfr": "https://www.mediatheque.ch/borrow/",
          "nameen": "Borrow",
          "urlen": "https://www.mediatheque.ch/borrow/"
        }
      ]
    },
    {
      "headingfr": "Rechercher",
      "headingen": "Search",
      "items": [
        {
          "namefr": "Domaines",
          "urlfr": "https://www.mediatheque.ch/research/domains/fr/domaines/",
          "nameen": "Domains",
          "urlen": "https://www.mediatheque.ch/research/domains/"
        },
        {
          "namefr": "Infrastructures",
          "urlfr": "https://www.mediatheque.ch/research/facilities/fr/infrastructure-a-disposition/",
          "nameen": "Facilities",
          "urlen": "https://www.mediatheque.ch/research/facilities/"
        },
        {
          "namefr": "Services aux chercheurs",
          "urlfr": "https://www.mediatheque.ch/research/services/fr/services-pour-nos-labos/",
          "nameen": "Services for researchers",
          "urlen": "https://www.mediatheque.ch/research/services/"
        }
      ]
    },
    {
      "headingfr": "Evénements",
      "headingen": "Events",
      "items": [
        {
          "namefr": "Domaines d'innovation",
          "urlfr": "https://www.mediatheque.ch/innovation/about/fr/domaines/",
          "nameen": "Innovation domains",
          "urlen": "https://www.mediatheque.ch/innovation/about/domains/"
        },
        {
          "namefr": "Collaboration avec l'industrie",
          "urlfr": "https://www.mediatheque.ch/innovation/industry/fr/industries/",
          "nameen": " Collaborate with industry",
          "urlen": "https://www.mediatheque.ch/innovation/industry/"
        }
      ]
    },
    {
      "headingfr": "Espaces",
      "headingen": "Spaces",
      "items": [
        {
          "namefr": "Information visiteurs",
          "urlfr": "https://www.mediatheque.ch/campus/visitors/fr/informations-visiteurs/",
          "nameen": "Visitors information",
          "urlen": "https://www.mediatheque.ch/campus/visitors/"
        },
        {
          "namefr": "Services et ressources",
          "urlfr": "https://www.mediatheque.ch/campus/services/",
          "nameen": "Services and resources",
          "urlen": "https://www.mediatheque.ch/campus/services/en/homepage/"
        },
        {
          "namefr": "Art et culture",
          "urlfr": "https://www.mediatheque.ch/campus/art-culture/fr/accueil/",
          "nameen": "Art and culture",
          "urlen": "https://www.mediatheque.ch/campus/art-culture/"
        },
        {
          "namefr": "Associations",
          "urlfr": "https://www.mediatheque.ch/campus/associations/fr/index-fr-html/",
          "nameen": "Associations",
          "urlen": "https://www.mediatheque.ch/campus/associations/"
        }
      ]
    }
  ]
}
