<svg id="icon-archive" viewBox="0 0 32 32" width="100%" height="100%">
<title>archive</title>
<path d="M26.203 21.596c1.176-1.997 1.797-4.278 1.797-6.595 0-7.168-5.832-13-13-13s-13 5.832-13 13c0 7.168 5.832 13 13 13 2.99 0 5.913-1.043 8.228-2.935 0.267-0.218 0.307-0.612 0.089-0.879s-0.613-0.307-0.88-0.088c-2.093 1.711-4.734 2.653-7.437 2.653-6.479 0-11.75-5.271-11.75-11.75s5.271-11.75 11.75-11.75c6.479 0 11.75 5.271 11.75 11.75 0 2.095-0.562 4.156-1.625 5.961-0.175 0.297-0.076 0.681 0.222 0.856s0.681 0.076 0.856-0.221z"></path>
<path d="M15 6.172c0.944 0 1.712 0.768 1.712 1.712s-0.768 1.712-1.712 1.712-1.712-0.768-1.712-1.712c0-0.944 0.768-1.713 1.712-1.713zM15 10.847c1.634 0 2.962-1.329 2.962-2.962s-1.329-2.963-2.962-2.963-2.962 1.329-2.962 2.962c0 1.634 1.329 2.962 2.962 2.962z"></path>
<path d="M9.862 13.33c-0.292 0.898-1.26 1.391-2.158 1.1s-1.391-1.26-1.1-2.158c0.292-0.898 1.26-1.391 2.158-1.099 0.435 0.141 0.789 0.444 0.996 0.851s0.244 0.872 0.103 1.306zM11.050 13.717c0.245-0.753 0.181-1.555-0.178-2.26s-0.972-1.228-1.724-1.473c-1.554-0.505-3.228 0.349-3.733 1.902s0.349 3.228 1.902 3.733c0.303 0.098 0.611 0.145 0.913 0.145 1.249 0 2.413-0.796 2.82-2.047z"></path>
<path d="M9.432 19.75c0.269-0.37 0.666-0.613 1.117-0.685 0.091-0.014 0.181-0.021 0.272-0.021 0.359 0 0.707 0.113 1.003 0.328 0.764 0.555 0.934 1.628 0.379 2.392-0.269 0.37-0.666 0.613-1.117 0.685s-0.904-0.037-1.274-0.306c-0.764-0.555-0.934-1.628-0.379-2.392zM9.077 23.153c0.512 0.372 1.114 0.566 1.735 0.566 0.156 0 0.313-0.012 0.47-0.037 0.782-0.124 1.468-0.544 1.933-1.185 0.96-1.321 0.666-3.178-0.655-4.138-0.64-0.465-1.423-0.653-2.205-0.529s-1.468 0.544-1.933 1.184c-0.96 1.322-0.667 3.178 0.655 4.138z"></path>
<path d="M18.176 19.371c0.303-0.22 0.655-0.327 1.004-0.327 0.53 0 1.053 0.245 1.388 0.705 0.555 0.764 0.385 1.837-0.379 2.392s-1.837 0.385-2.392-0.379c-0.555-0.764-0.385-1.837 0.379-2.392zM19.187 23.718c0.603 0 1.212-0.184 1.737-0.565 1.321-0.96 1.615-2.816 0.655-4.138s-2.817-1.616-4.138-0.655c-1.322 0.96-1.615 2.817-0.656 4.138 0.579 0.797 1.484 1.22 2.401 1.22z"></path>
<path d="M20.139 13.33c-0.292-0.898 0.201-1.866 1.099-2.158 0.174-0.057 0.353-0.085 0.531-0.085 0.267 0 0.531 0.063 0.776 0.187 0.407 0.208 0.71 0.562 0.851 0.996 0.292 0.898-0.201 1.866-1.099 2.158s-1.866-0.201-2.158-1.1zM24.585 11.886c-0.244-0.753-0.767-1.365-1.472-1.724s-1.508-0.422-2.261-0.178c-0.753 0.245-1.365 0.768-1.724 1.473s-0.422 1.508-0.178 2.26c0.407 1.251 1.57 2.047 2.82 2.047 0.303 0 0.61-0.047 0.913-0.145 1.553-0.505 2.407-2.18 1.902-3.733z"></path>
<path d="M14.406 15.193c-0.106-0.327 0.074-0.681 0.401-0.787 0.064-0.020 0.129-0.030 0.194-0.030 0.097 0 0.194 0.023 0.283 0.068 0.149 0.076 0.259 0.205 0.311 0.363s0.038 0.328-0.038 0.476c-0.076 0.149-0.204 0.259-0.363 0.311-0.328 0.107-0.681-0.074-0.787-0.401zM15.58 16.783c0.476-0.155 0.863-0.486 1.091-0.932s0.267-0.954 0.113-1.43c-0.155-0.476-0.486-0.863-0.932-1.091s-0.954-0.267-1.43-0.113c-0.983 0.32-1.523 1.379-1.204 2.362 0.257 0.791 0.994 1.295 1.784 1.295 0.192 0 0.386-0.030 0.578-0.092z"></path>
<path d="M30.375 30.75c-0.203 0-0.375-0.172-0.375-0.375 0-1.999-1.626-3.625-3.625-3.625h-2.050c0.299-0.238 0.589-0.488 0.871-0.75h1.178c2.399 0 4.362 1.952 4.374 4.352 0 0.004 0 0.009 0.001 0.013v0.010c0 0.203-0.172 0.375-0.375 0.375zM32 30.339c-0.020-3.074-2.528-5.575-5.6-5.588 2.329-2.715 3.601-6.135 3.601-9.75 0-4.007-1.56-7.774-4.394-10.607s-6.6-4.393-10.606-4.393c-2.43 0-4.85 0.599-6.999 1.733-0.305 0.161-0.422 0.539-0.261 0.845s0.539 0.422 0.844 0.261c1.97-1.039 4.189-1.588 6.416-1.588 7.582 0 13.75 6.168 13.75 13.75s-6.168 13.75-13.75 13.75-13.75-6.168-13.75-13.75c0-3.673 1.43-7.126 4.027-9.723 0.244-0.244 0.244-0.64 0-0.884s-0.64-0.244-0.884 0c-1.4 1.4-2.494 3.037-3.251 4.866s-1.142 3.76-1.142 5.74c0 4.006 1.56 7.773 4.393 10.606s6.6 4.394 10.607 4.394c2.674 0 5.24-0.696 7.494-2h3.881c1.309 0 2.375 1.065 2.375 2.375 0 0.896 0.729 1.625 1.625 1.625s1.625-0.729 1.625-1.625c0-0.012-0-0.024-0.001-0.036z"></path>
<path d="M6.148 4.299c0.135 0 0.272-0.044 0.386-0.134l0.014-0.011c0.273-0.211 0.324-0.603 0.113-0.876s-0.603-0.324-0.877-0.114l-0.024 0.019c-0.271 0.214-0.318 0.607-0.104 0.878 0.123 0.156 0.306 0.238 0.491 0.238z"></path>
<path d="M24.269 23.225c0.115 0.092 0.252 0.137 0.389 0.137 0.184 0 0.366-0.081 0.489-0.236l0.021-0.026c0.215-0.27 0.171-0.663-0.099-0.878s-0.663-0.171-0.879 0.099l-0.021 0.026c-0.215 0.27-0.171 0.663 0.099 0.878z"></path>
</svg>