<svg id="icon-ecran" viewBox="0 0 36 32" width="100%" height="100%">
<title>ecran</title>
<path d="M34.496 18.088h-33.046v-16.013c0-0.345 0.28-0.625 0.624-0.625h31.798c0.344 0 0.624 0.28 0.624 0.625zM34.496 24.028c0 0.345-0.28 0.625-0.624 0.625h-31.798c-0.344 0-0.624-0.28-0.624-0.625v-4.49h33.046zM13.508 30.55l0.136-0.175c0.579-0.744 0.885-1.634 0.885-2.574v-1.697h6.888v1.697c0 0.94 0.306 1.83 0.885 2.574l0.137 0.175zM35.338 0.609c-0.392-0.393-0.913-0.609-1.466-0.609h-31.798c-1.144 0-2.075 0.931-2.075 2.075v21.953c0 1.144 0.93 2.075 2.075 2.075h11.004v1.697c0 1.516-1.234 2.75-2.749 2.75h-2.401c-0.4 0-0.725 0.325-0.725 0.725s0.325 0.725 0.725 0.725h20.090c0.4 0 0.725-0.325 0.725-0.725s-0.325-0.725-0.725-0.725h-2.401c-1.516 0-2.749-1.234-2.749-2.75v-1.697h11.004c1.144 0 2.075-0.931 2.075-2.075v-21.953c0-0.554-0.216-1.074-0.608-1.466z"></path>
<path d="M17.973 22.887c0.436 0 0.791-0.355 0.791-0.791s-0.355-0.791-0.791-0.791c-0.436 0-0.791 0.355-0.791 0.791s0.355 0.791 0.791 0.791z"></path>
<path d="M17.973 21.305c0.436 0 0.791 0.355 0.791 0.791s-0.355 0.791-0.791 0.791c-0.436 0-0.791-0.355-0.791-0.791s0.355-0.791 0.791-0.791z"></path>
<path d="M19.326 5.712c-0.141-0.141-0.327-0.212-0.513-0.212s-0.371 0.070-0.512 0.212l-5.892 5.892c-0.283 0.283-0.283 0.743 0 1.025 0.273 0.275 0.752 0.275 1.025 0l5.892-5.891c0.282-0.282 0.282-0.743 0-1.026z"></path>
<path d="M19.326 6.738l-5.892 5.891c-0.274 0.275-0.752 0.275-1.025 0-0.283-0.283-0.283-0.743 0-1.025l5.892-5.892c0.141-0.141 0.327-0.212 0.512-0.212s0.371 0.071 0.513 0.212c0.282 0.282 0.282 0.743 0 1.026z"></path>
<path d="M21.793 9.126l-2.347 2.347c-0.283 0.283-0.283 0.743 0 1.026 0.274 0.274 0.752 0.274 1.025 0l2.347-2.347c0.283-0.283 0.283-0.743 0-1.025s-0.742-0.283-1.025 0z"></path>
<path d="M22.818 10.152l-2.347 2.347c-0.274 0.274-0.752 0.274-1.025 0-0.283-0.283-0.283-0.743 0-1.026l2.347-2.347c0.283-0.283 0.742-0.283 1.025 0s0.282 0.743 0 1.025z"></path>
</svg>