<svg id="icon-acquisition" viewBox="0 0 32 32" width="100%" height="100%">
<title>acquisition</title>
<path d="M16 5.334c0.476 0 0.962 0.246 1.333 0.461 0.165 0.096 0.369 0.096 0.534 0 0.371-0.215 0.857-0.461 1.333-0.461 1.47 0 2.667 1.196 2.667 2.667 0 2.454-0.968 3.957-0.982 3.979-0.249 0.388-1.002 0.821-1.684 0.821-0.688 0-1.278-0.425-1.282-0.428-0.094-0.070-0.206-0.106-0.318-0.106s-0.224 0.035-0.319 0.106c-0.006 0.004-0.594 0.428-1.281 0.428-0.68 0-1.389-0.443-1.711-0.86-0.011-0.014-0.029-0.034-0.041-0.047-0.009-0.010-0.914-1.002-0.914-3.893-0-1.471 1.196-2.667 2.667-2.667zM16 13.867c0.672 0 1.258-0.253 1.6-0.441 0.342 0.188 0.927 0.441 1.6 0.441 0.993 0 2.103-0.564 2.577-1.304 0.047-0.071 1.156-1.766 1.156-4.563 0-2.059-1.675-3.734-3.733-3.734-0.603 0-1.153 0.221-1.6 0.457-0.447-0.235-0.997-0.457-1.6-0.457-2.059 0-3.733 1.675-3.733 3.734 0 3.16 0.983 4.387 1.197 4.616 0.482 0.607 1.472 1.25 2.537 1.25z"></path>
<path d="M17.143 3.475c0.1 0.166 0.276 0.259 0.457 0.259 0.093 0 0.188-0.025 0.274-0.076 0.252-0.151 0.334-0.479 0.182-0.732l-1.6-2.667c-0.151-0.252-0.479-0.335-0.732-0.182s-0.334 0.479-0.182 0.732z"></path>
<path d="M19.73 1.383c0.209-0.209 0.494-0.315 0.849-0.315 0.075 0 0.146 0.005 0.209 0.012 0.032 0.288 0.017 0.736-0.304 1.057-0.209 0.209-0.495 0.316-0.848 0.316-0.075 0-0.146-0.006-0.209-0.013-0.033-0.288-0.018-0.736 0.303-1.057zM18.808 3.398c0.037 0.012 0.378 0.122 0.828 0.122h0.001c0.638 0 1.193-0.218 1.603-0.628 0.976-0.976 0.526-2.372 0.506-2.431-0.053-0.159-0.178-0.284-0.337-0.337-0.038-0.012-0.378-0.121-0.829-0.121-0.638 0-1.192 0.217-1.603 0.628-0.976 0.977-0.525 2.372-0.506 2.431 0.053 0.16 0.178 0.284 0.337 0.337z"></path>
<path d="M30.4 14.934h-25.6c-0.882 0-1.6 0.718-1.6 1.6v2.133c0 0.294 0.239 0.533 0.533 0.533s0.533-0.239 0.533-0.533v-2.133c0-0.294 0.239-0.533 0.533-0.533h1.6v2.667c0 0.294 0.239 0.533 0.533 0.533s0.533-0.239 0.533-0.533v-2.667h13.867v2.667c0 0.294 0.239 0.533 0.533 0.533s0.533-0.239 0.533-0.533v-2.667h5.333v2.667c0 0.294 0.239 0.533 0.533 0.533s0.533-0.239 0.533-0.533v-2.667h1.6c0.294 0 0.533 0.24 0.533 0.533v3.733h-1.6c-0.295 0-0.533 0.239-0.533 0.533v4.8h-0.533c-0.294 0-0.533 0.239-0.533 0.533s0.239 0.533 0.533 0.533h1.6v3.733c0 0.294-0.239 0.533-0.533 0.533h-16.533v-2.667c0-0.295-0.239-0.534-0.533-0.534s-0.533 0.239-0.533 0.534v2.667h-1.067v-2.667c0-0.295-0.239-0.534-0.533-0.534s-0.533 0.239-0.533 0.534v2.667h-1.067v-2.667c0-0.295-0.239-0.534-0.534-0.534s-0.533 0.239-0.533 0.534v2.667h-4.8c-0.294 0-0.533-0.239-0.533-0.533v-2.133c0-0.294-0.239-0.533-0.534-0.533s-0.533 0.239-0.533 0.533v2.133c0 0.882 0.718 1.6 1.6 1.6h26.667c0.882 0 1.6-0.718 1.6-1.6v-3.733c0-0.693-0.549-1.067-1.067-1.067v-4.267h1.067c0.517 0 1.067-0.374 1.067-1.067v-3.733c-0-0.882-0.718-1.6-1.6-1.6z"></path>
<path d="M1.067 25.067v-3.2c0-0.304 0.229-0.533 0.533-0.533h3.734v4.267h-3.733c-0.299 0-0.533-0.234-0.533-0.533zM6.4 21.333h7.467v4.267h-7.467zM23.466 21.333h2.134v7.003l-0.771-0.514c-0.179-0.119-0.413-0.119-0.592 0l-0.771 0.514zM20.8 26.667c0.295 0 0.534-0.239 0.534-0.533s-0.239-0.533-0.534-0.533h-5.867v-4.267h7.467v8c0 0.197 0.108 0.378 0.282 0.47s0.384 0.082 0.548-0.026l1.304-0.869 1.304 0.869c0.089 0.060 0.193 0.089 0.296 0.089 0.086 0 0.173-0.021 0.252-0.063 0.173-0.093 0.281-0.274 0.281-0.47v-8h0.533c0.295 0 0.533-0.239 0.533-0.533s-0.239-0.533-0.533-0.533h-25.6c-0.897 0-1.6 0.703-1.6 1.6v3.2c0 0.882 0.718 1.6 1.6 1.6z"></path>
<path d="M11.2 22.4c-0.294 0-0.533 0.239-0.533 0.533v1.067c0 0.295 0.239 0.534 0.533 0.534s0.534-0.239 0.534-0.534v-1.067c0-0.294-0.239-0.533-0.534-0.533z"></path>
<path d="M9.066 22.4c-0.294 0-0.533 0.239-0.533 0.533v1.067c0 0.295 0.239 0.534 0.533 0.534s0.533-0.239 0.533-0.534v-1.067c0-0.294-0.239-0.533-0.533-0.533z"></path>
</svg>