<svg id="icon-question" viewBox="0 0 32 32" width="100%" height="100%">
<title>question</title>
<path d="M11.125 32c-0.163 0-0.322-0.064-0.442-0.183l-2.567-2.567h-3.741c-2.412 0-4.375-1.963-4.375-4.375v-9.625c0-2.412 1.963-4.375 4.375-4.375h6.313c0.345 0 0.625 0.28 0.625 0.625s-0.28 0.625-0.625 0.625h-6.313c-1.723 0-3.125 1.402-3.125 3.125v9.625c0 1.723 1.402 3.125 3.125 3.125h4.061c0.256 0 0.477 0.154 0.573 0.375l1.492 1.492 0.001-1.243c0-0.345 0.28-0.625 0.625-0.625h6.748c1.723 0 3.125-1.402 3.125-3.125v-4.313c0-0.345 0.28-0.625 0.625-0.625s0.625 0.28 0.625 0.625v4.313c0 2.412-1.963 4.375-4.375 4.375h-6.123l-0.002 2.125c-0 0.253-0.152 0.48-0.386 0.577-0.077 0.032-0.158 0.047-0.239 0.047z"></path>
<path d="M25.404 16.546c0.163 0 0.323 0.064 0.442 0.183l1.529 1.529v-2.413c0-0.196 0.092-0.381 0.249-0.499 1.987-1.496 3.126-3.779 3.126-6.262 0-4.32-3.514-7.834-7.834-7.834h-1.582c-4.32 0-7.834 3.514-7.834 7.834s3.514 7.834 7.834 7.834h1.582c0.785 0 1.56-0.116 2.304-0.345 0.060-0.018 0.122-0.028 0.183-0.028zM28 20.391c-0.163 0-0.322-0.064-0.442-0.183l-2.337-2.335c-0.75 0.196-1.524 0.296-2.306 0.296h-1.582c-5.009 0-9.084-4.075-9.084-9.084s4.075-9.084 9.084-9.084h1.582c5.009 0 9.084 4.075 9.084 9.084 0 1.451-0.332 2.838-0.987 4.122-0.577 1.131-1.399 2.143-2.388 2.944v3.616c0 0.253-0.152 0.481-0.386 0.577-0.077 0.032-0.159 0.048-0.239 0.048z"></path>
<path d="M22.3 11.673c-0.345 0-0.625-0.28-0.625-0.625v-1.502c0-0.56 0.383-1.037 0.932-1.159 0.677-0.152 1.134-0.767 1.086-1.463-0.047-0.689-0.603-1.245-1.292-1.292-0.393-0.027-0.767 0.105-1.053 0.372s-0.444 0.63-0.444 1.021c0 0.345-0.28 0.625-0.625 0.625s-0.625-0.28-0.625-0.625c0-0.731 0.306-1.436 0.841-1.935 0.542-0.506 1.25-0.756 1.991-0.705 1.308 0.090 2.363 1.145 2.453 2.453 0.090 1.301-0.755 2.454-2.015 2.758v1.452c0 0.345-0.28 0.625-0.625 0.625z"></path>
<path d="M22.3 14.146c-0.164 0-0.326-0.066-0.442-0.182s-0.183-0.277-0.183-0.443c0-0.164 0.067-0.326 0.183-0.442s0.277-0.183 0.442-0.183 0.326 0.067 0.442 0.183c0.116 0.116 0.183 0.277 0.183 0.442s-0.067 0.326-0.183 0.443c-0.116 0.116-0.277 0.182-0.442 0.182z"></path>
<path d="M17.188 20.625h-13.188c-0.345 0-0.625-0.28-0.625-0.625s0.28-0.625 0.625-0.625h13.188c0.345 0 0.625 0.28 0.625 0.625s-0.28 0.625-0.625 0.625z"></path>
<path d="M17.188 24.125c-0.164 0-0.326-0.067-0.442-0.183s-0.183-0.277-0.183-0.442c0-0.164 0.067-0.326 0.183-0.442s0.277-0.183 0.442-0.183 0.326 0.067 0.442 0.183c0.116 0.116 0.183 0.277 0.183 0.442s-0.067 0.326-0.183 0.442c-0.116 0.116-0.277 0.183-0.442 0.183z"></path>
<path d="M14.729 24.125h-10.729c-0.345 0-0.625-0.28-0.625-0.625s0.28-0.625 0.625-0.625h10.729c0.345 0 0.625 0.28 0.625 0.625s-0.28 0.625-0.625 0.625z"></path>
<path d="M13.125 17.125h-9.125c-0.345 0-0.625-0.28-0.625-0.625s0.28-0.625 0.625-0.625h9.125c0.345 0 0.625 0.28 0.625 0.625s-0.28 0.625-0.625 0.625z"></path>
</svg>