<svg id="icon-presse" viewBox="0 0 42 32" width="100%" height="100%">
<title>presse</title>
<path d="M35.816 6.33c-0.491 0.619-0.751 1.365-0.751 2.156v12.267h-1.633v-14.514h2.457zM32.203 10.734h-30.973v-9.505h30.973zM41.404 18.046c0.339 0 0.615-0.276 0.615-0.615v-8.945c0-1.917-1.56-3.477-3.477-3.477h-5.11v-4.394c0-0.339-0.276-0.615-0.614-0.615h-32.202c-0.339 0-0.615 0.276-0.615 0.615v20.395c0 0.339 0.276 0.614 0.615 0.614s0.614-0.276 0.614-0.614v-9.046h30.973v15.129c0 1.35 0.567 2.656 1.555 3.582l0.104 0.097h-28.954c-2.028 0-3.679-1.65-3.679-3.679v-2.505c0-0.339-0.276-0.614-0.614-0.614s-0.615 0.276-0.615 0.614v2.505c0 2.707 2.202 4.908 4.908 4.908h32.202c1.296 0 2.518-0.5 3.441-1.409 0.946-0.93 1.467-2.173 1.467-3.499v-6.083c0-0.339-0.276-0.614-0.615-0.614s-0.615 0.276-0.615 0.614v6.083c0 0.994-0.391 1.926-1.099 2.623-0.693 0.681-1.609 1.055-2.584 1.055h-0.027c-0.14-0.001-0.283-0.011-0.426-0.029-1.837-0.235-3.222-1.834-3.222-3.72v-5.040h2.248c0.339 0 0.615-0.276 0.615-0.614v-12.881c0-1.24 1.008-2.248 2.248-2.248s2.248 1.008 2.248 2.248v8.945c0 0.339 0.276 0.615 0.615 0.615z"></path>
<path d="M4.908 9.101c0.339 0 0.615-0.276 0.615-0.614v-3.348l3.212 3.748c0.2 0.233 0.48 0.24 0.676 0.168s0.405-0.26 0.405-0.568v-5.009c0-0.339-0.276-0.615-0.615-0.615s-0.614 0.276-0.614 0.615v3.348l-3.212-3.748c-0.131-0.153-0.296-0.208-0.449-0.208-0.082 0-0.159 0.015-0.227 0.041-0.196 0.073-0.405 0.259-0.405 0.568v5.009c0 0.339 0.276 0.614 0.614 0.614z"></path>
<path d="M4.294 3.477c0-0.309 0.209-0.495 0.405-0.568 0.068-0.025 0.146-0.041 0.227-0.041 0.153 0 0.318 0.055 0.449 0.208l3.212 3.749v-3.348c0-0.339 0.276-0.615 0.614-0.615s0.615 0.276 0.615 0.614v5.009c0 0.308-0.209 0.495-0.406 0.568s-0.475 0.065-0.676-0.168l-3.212-3.748v3.348c0 0.339-0.276 0.614-0.615 0.614s-0.614-0.276-0.614-0.614z"></path>
<path d="M11.349 9.101h3.578c0.339 0 0.615-0.276 0.615-0.614s-0.276-0.615-0.615-0.615h-2.963v-1.633h1.532c0.339 0 0.615-0.276 0.615-0.615s-0.276-0.614-0.615-0.614h-1.532v-0.918h2.963c0.339 0 0.615-0.276 0.615-0.614s-0.276-0.615-0.615-0.615h-3.578c-0.339 0-0.614 0.276-0.614 0.615v5.009c0 0.339 0.276 0.614 0.614 0.614z"></path>
<path d="M10.734 3.477c0-0.339 0.276-0.615 0.614-0.615h3.578c0.339 0 0.614 0.276 0.614 0.615s-0.276 0.614-0.614 0.614h-2.963v0.918h1.532c0.339 0 0.615 0.276 0.615 0.615s-0.276 0.614-0.615 0.614h-1.532v1.633h2.963c0.339 0 0.614 0.276 0.614 0.614s-0.276 0.614-0.614 0.614h-3.578c-0.339 0-0.614-0.276-0.614-0.614z"></path>
<path d="M17.914 8.655c0.072 0.253 0.297 0.431 0.559 0.445 0.269 0.018 0.504-0.14 0.602-0.385l0.861-2.152 0.86 2.152c0.094 0.235 0.318 0.386 0.571 0.386 0.014-0.002 0.020 0 0.030-0.001 0.264-0.013 0.489-0.191 0.562-0.445l1.431-5.009c0.093-0.326-0.097-0.667-0.422-0.76-0.159-0.044-0.324-0.026-0.467 0.054s-0.248 0.21-0.293 0.368l-0.937 3.28-0.763-1.908c-0.094-0.235-0.318-0.387-0.571-0.387s-0.477 0.152-0.57 0.386l-0.764 1.908-0.937-3.28c-0.077-0.27-0.323-0.445-0.591-0.445-0.056 0-0.113 0.007-0.169 0.023-0.326 0.093-0.515 0.434-0.422 0.76z"></path>
<path d="M16.904 2.886c0.056-0.016 0.113-0.024 0.169-0.024 0.268 0 0.514 0.176 0.591 0.446l0.938 3.281 0.763-1.909c0.093-0.234 0.318-0.386 0.57-0.386s0.477 0.152 0.571 0.386l0.763 1.908 0.937-3.28c0.045-0.158 0.149-0.289 0.293-0.368s0.309-0.098 0.467-0.054c0.326 0.093 0.515 0.434 0.422 0.76l-1.431 5.009c-0.072 0.253-0.297 0.431-0.561 0.445-0.010 0.001-0.016-0.001-0.030 0.001-0.252 0-0.476-0.151-0.57-0.386l-0.861-2.151-0.861 2.151c-0.098 0.245-0.333 0.404-0.602 0.386-0.262-0.013-0.487-0.192-0.559-0.445l-1.431-5.009c-0.093-0.326 0.096-0.667 0.422-0.76z"></path>
<path d="M24.945 7.872c-0.339 0-0.615 0.276-0.615 0.614s0.276 0.615 0.615 0.615h3.578c0.339 0 0.615-0.276 0.615-0.615v-2.146c0-0.339-0.276-0.615-0.615-0.615h-2.963v-1.633h2.963c0.339 0 0.615-0.276 0.615-0.614s-0.276-0.615-0.615-0.615h-3.578c-0.339 0-0.615 0.276-0.615 0.615v2.862c0 0.339 0.276 0.614 0.615 0.614h2.963v0.918z"></path>
<path d="M24.945 6.954c-0.339 0-0.615-0.276-0.615-0.614v-2.862c0-0.339 0.276-0.615 0.615-0.615h3.578c0.339 0 0.615 0.276 0.615 0.615s-0.276 0.615-0.615 0.615h-2.963v1.633h2.963c0.339 0 0.615 0.276 0.615 0.615v2.146c0 0.339-0.276 0.615-0.615 0.615h-3.578c-0.339 0-0.615-0.276-0.615-0.615s0.276-0.614 0.615-0.614h2.963v-0.918z"></path>
<path d="M12.881 20.752h-7.358v-5.927h7.358zM13.495 13.597h-8.587c-0.339 0-0.614 0.276-0.614 0.614v7.156c0 0.339 0.276 0.614 0.614 0.614h8.587c0.339 0 0.615-0.276 0.615-0.614v-7.156c0-0.339-0.276-0.614-0.615-0.614z"></path>
<path d="M18.505 18.404h10.018c0.339 0 0.614-0.276 0.614-0.614s-0.276-0.615-0.614-0.615h-10.018c-0.339 0-0.614 0.276-0.614 0.615s0.276 0.614 0.614 0.614z"></path>
<path d="M18.505 17.174h10.018c0.339 0 0.614 0.276 0.614 0.614s-0.276 0.615-0.614 0.615h-10.018c-0.339 0-0.614-0.276-0.614-0.615s0.276-0.614 0.614-0.614z"></path>
<path d="M18.505 14.826h10.018c0.339 0 0.614-0.276 0.614-0.614s-0.276-0.615-0.614-0.615h-10.018c-0.339 0-0.614 0.276-0.614 0.615s0.276 0.614 0.614 0.614z"></path>
<path d="M18.505 13.597h10.018c0.339 0 0.614 0.276 0.614 0.614s-0.276 0.615-0.614 0.615h-10.018c-0.339 0-0.614-0.276-0.614-0.615s0.276-0.614 0.614-0.614z"></path>
<path d="M18.505 21.981h10.018c0.339 0 0.614-0.276 0.614-0.614s-0.276-0.615-0.614-0.615h-10.018c-0.339 0-0.614 0.276-0.614 0.615s0.276 0.614 0.614 0.614z"></path>
<path d="M18.505 20.752h10.018c0.339 0 0.614 0.276 0.614 0.614s-0.276 0.615-0.614 0.615h-10.018c-0.339 0-0.614-0.276-0.614-0.615s0.276-0.614 0.614-0.614z"></path>
<path d="M18.505 25.559h10.018c0.339 0 0.614-0.276 0.614-0.614s-0.276-0.615-0.614-0.615h-10.018c-0.339 0-0.614 0.276-0.614 0.615s0.276 0.614 0.614 0.614z"></path>
<path d="M18.505 24.33h10.018c0.339 0 0.614 0.276 0.614 0.614s-0.276 0.615-0.614 0.615h-10.018c-0.339 0-0.614-0.276-0.614-0.615s0.276-0.614 0.614-0.614z"></path>
<path d="M4.193 25.559h10.018c0.339 0 0.614-0.276 0.614-0.614s-0.276-0.615-0.614-0.615h-10.018c-0.339 0-0.614 0.276-0.614 0.615s0.276 0.614 0.614 0.614z"></path>
<path d="M4.193 24.33h10.018c0.339 0 0.614 0.276 0.614 0.614s-0.276 0.615-0.614 0.615h-10.018c-0.339 0-0.614-0.276-0.614-0.615s0.276-0.614 0.614-0.614z"></path>
<path d="M4.193 29.138h10.018c0.339 0 0.614-0.276 0.614-0.615s-0.276-0.614-0.614-0.614h-10.018c-0.339 0-0.614 0.276-0.614 0.614s0.276 0.615 0.614 0.615z"></path>
<path d="M4.193 27.908h10.018c0.339 0 0.614 0.276 0.614 0.614s-0.276 0.615-0.614 0.615h-10.018c-0.339 0-0.614-0.276-0.614-0.615s0.276-0.614 0.614-0.614z"></path>
<path d="M18.505 29.138h10.018c0.339 0 0.614-0.276 0.614-0.615s-0.276-0.614-0.614-0.614h-10.018c-0.339 0-0.614 0.276-0.614 0.614s0.276 0.615 0.614 0.615z"></path>
<path d="M18.505 27.908h10.018c0.339 0 0.614 0.276 0.614 0.614s-0.276 0.615-0.614 0.615h-10.018c-0.339 0-0.614-0.276-0.614-0.615s0.276-0.614 0.614-0.614z"></path>
</svg>