<svg id="icon-poster" viewBox="0 0 22 32" width="100%" height="100%">
<title>poster</title>
<path d="M14.319 6.341h3.84c0.24 0 0.435-0.195 0.435-0.435s-0.195-0.434-0.435-0.434h-3.84c-0.24 0-0.435 0.195-0.435 0.434s0.195 0.435 0.435 0.435z"></path>
<path d="M11.012 6.341h2.002c0.24 0 0.435-0.195 0.435-0.435s-0.195-0.434-0.435-0.434h-2.002c-0.24 0-0.434 0.195-0.434 0.434s0.195 0.435 0.434 0.435z"></path>
<path d="M11.012 7.854h7.146c0.24 0 0.435-0.195 0.435-0.435s-0.195-0.435-0.435-0.435h-7.146c-0.24 0-0.434 0.195-0.434 0.435s0.195 0.435 0.434 0.435z"></path>
<path d="M11.012 9.364h4.057c0.24 0 0.435-0.195 0.435-0.435s-0.195-0.435-0.435-0.435h-4.057c-0.24 0-0.434 0.195-0.434 0.435s0.195 0.435 0.434 0.435z"></path>
<path d="M18.159 12.456h-3.84c-0.24 0-0.435 0.195-0.435 0.435s0.195 0.435 0.435 0.435h3.84c0.24 0 0.435-0.195 0.435-0.435s-0.195-0.435-0.435-0.435z"></path>
<path d="M11.012 13.325h2.002c0.24 0 0.435-0.195 0.435-0.435s-0.195-0.435-0.435-0.435h-2.002c-0.24 0-0.434 0.195-0.434 0.435s0.195 0.435 0.434 0.435z"></path>
<path d="M11.012 14.835h7.146c0.24 0 0.435-0.195 0.435-0.435s-0.195-0.435-0.435-0.435h-7.146c-0.24 0-0.434 0.195-0.434 0.435s0.195 0.435 0.434 0.435z"></path>
<path d="M11.012 16.348h4.057c0.24 0 0.435-0.195 0.435-0.435s-0.195-0.435-0.435-0.435h-4.057c-0.24 0-0.434 0.195-0.434 0.435s0.195 0.435 0.434 0.435z"></path>
<path d="M18.805 22.625h-17.936v-21.755h20.286v21.755zM17.116 23.494h1.255v6.086h-1.255zM19.478 30.45c0.448 0 0.853 0.268 1.029 0.681h-5.529c0.175-0.413 0.58-0.681 1.029-0.681h3.478zM3.657 23.494h1.255v6.086h-1.255zM6.019 30.45c0.448 0 0.854 0.268 1.029 0.681h-5.529c0.175-0.413 0.58-0.681 1.029-0.681h3.478zM21.59 23.494c0.24 0 0.435-0.195 0.435-0.435v-22.625c0-0.24-0.195-0.435-0.435-0.435h-21.155c-0.24 0-0.435 0.195-0.435 0.435v22.625c0 0.24 0.195 0.435 0.435 0.435h2.353v6.086h-0.241c-1.096 0.002-1.983 0.889-1.985 1.985 0 0.24 0.195 0.435 0.435 0.435h6.576c0.24 0 0.435-0.195 0.435-0.435-0.002-1.096-0.889-1.983-1.985-1.985h-0.24v-6.086h10.462v6.086h-0.241c-1.096 0.002-1.983 0.889-1.985 1.985 0 0.24 0.195 0.435 0.435 0.435h6.576c0.24 0 0.435-0.195 0.435-0.435-0.002-1.096-0.889-1.983-1.985-1.985h-0.241v-6.086z"></path>
<path d="M19.521 20.872h-17.017v-18.258h17.017zM19.956 1.745h-17.887c-0.24 0-0.435 0.195-0.435 0.435v19.127c0 0.24 0.195 0.435 0.435 0.435h17.887c0.24 0 0.435-0.195 0.435-0.435v-19.127c0-0.24-0.195-0.435-0.435-0.435z"></path>
<path d="M4.347 5.074h4.414v6.022h-4.414zM8.761 17.988h-4.414v-6.022h4.414zM3.927 18.857h5.269c0.24 0 0.435-0.195 0.435-0.435v-13.783c0-0.24-0.195-0.435-0.435-0.435h-5.269c-0.24 0-0.435 0.195-0.435 0.435v13.783c0 0.24 0.195 0.435 0.435 0.435z"></path>
</svg>