<svg id="icon-theatre" viewBox="0 0 51 32" width="100%" height="100%">
<title>theatre</title>
<path d="M12.676 30.013c-0.614 0-1.123-0.509-1.123-1.123v-18.795c0-0.614 0.509-1.123 1.123-1.123h26.046c0.614 0 1.123 0.509 1.123 1.123v18.795c0 0.614-0.509 1.123-1.123 1.123zM12.676 28.96h26.046c0.045 0 0.071-0.025 0.071-0.070v-18.795c0-0.045-0.025-0.070-0.071-0.070h-26.046c-0.045 0-0.070 0.025-0.070 0.070v18.795c0 0.045 0.026 0.070 0.070 0.070z"></path>
<path d="M15.703 27.382c-0.614 0-1.123-0.509-1.123-1.123v-13.535c0-0.614 0.509-1.123 1.123-1.123h19.992c0.614 0 1.123 0.509 1.123 1.123v13.535c0 0.614-0.509 1.123-1.123 1.123zM15.703 26.33h19.992c0.045 0 0.071-0.025 0.071-0.070v-13.535c0-0.045-0.025-0.070-0.071-0.070h-19.992c-0.045 0-0.070 0.025-0.070 0.070v13.535c0 0.045 0.025 0.070 0.070 0.070z"></path>
<path d="M50.359 31.996c-0.081 0.006-0.164 0.004-0.247-0.008l-0.009-0.001-10.351-1.893c-0.547-0.080-0.96-0.558-0.96-1.111v-16.48c0-0.826 0.929-1.381 1.656-0.988l0.023 0.012 10.338 6.956c0.362 0.196 0.589 0.576 0.589 0.988v11.407c0 0.591-0.473 1.074-1.039 1.119zM50.266 30.947c0.051 0.007 0.080-0.017 0.080-0.069v-11.407c0-0.027-0.014-0.049-0.037-0.062l-0.022-0.012-10.344-6.957c-0.063-0.031-0.098-0.011-0.098 0.063v16.48c0 0.038 0.022 0.064 0.060 0.070l0.009 0.001 0.009 0.002z"></path>
<path d="M12.873 10.024c-0.307 0-0.574-0.1-0.818-0.267s-0.501-0.444-0.501-0.855v-0.974c0-0.415 0.23-0.798 0.596-0.992l0.001-0.001 13.023-6.804c0.328-0.174 0.723-0.174 1.051 0l13 6.804c0.366 0.194 0.597 0.577 0.597 0.992v0.974c0 0.399-0.242 0.679-0.482 0.85s-0.507 0.273-0.814 0.273zM12.873 8.972h25.653c0.022 0 0.14-0.032 0.203-0.077 0.029-0.021 0.038-0.034 0.041-0.037v-0.931c0-0.027-0.014-0.049-0.037-0.062l-13-6.805c-0.021-0.011-0.044-0.011-0.066 0l-0.001 0.001-13.022 6.804c-0.024 0.013-0.037 0.035-0.037 0.062v0.922c0.004 0.004 0.012 0.017 0.045 0.040 0.070 0.048 0.2 0.082 0.222 0.082z"></path>
<path d="M22.416 4.023c-0.614 0-1.123-0.509-1.123-1.123v-0.446h1.052v0.446c0 0.045 0.025 0.071 0.070 0.071h6.875c0.045 0 0.070-0.025 0.070-0.071v-0.324h1.052v0.324c0 0.614-0.509 1.123-1.123 1.123z"></path>
<path d="M1.039 31.996c-0.566-0.046-1.039-0.528-1.039-1.119v-11.407c0-0.412 0.227-0.792 0.589-0.988l-0.044 0.026 10.404-6.994c0.727-0.393 1.656 0.162 1.656 0.988v16.48c0 0.553-0.412 1.030-0.96 1.111l0.018-0.003-10.378 1.898c-0.084 0.012-0.166 0.015-0.247 0.008zM1.132 30.947l10.361-1.894c0.038-0.006 0.060-0.031 0.060-0.070v-16.48c0-0.074-0.035-0.094-0.098-0.063l-10.366 6.969c-0.024 0.013-0.037 0.036-0.037 0.062v11.407c0 0.052 0.029 0.077 0.080 0.069z"></path>
</svg>