<svg id="icon-userfemme" viewBox="0 0 32 32" width="100%" height="100%">
<title>userfemme</title>
<path d="M14.933 16.533h-0.533v1.067h0.533c2.061-0.002 3.731-1.672 3.733-3.733v-5.867c0-4.418-3.582-8-8-8s-8 3.582-8 8v5.867c0.002 2.061 1.672 3.731 3.733 3.733h0.533v-1.067h-0.533c-1.472-0.002-2.665-1.195-2.667-2.667v-5.867c0-3.829 3.104-6.933 6.933-6.933s6.933 3.104 6.933 6.933v5.867c-0.002 1.472-1.195 2.665-2.667 2.667z"></path>
<path d="M4.785 24.522l-0.901-0.572-0.39 0.614c-1.179 1.858-1.092 4.251 0.22 6.018v1.418h1.067v-1.6c0-0.121-0.041-0.239-0.117-0.333-1.134-1.417-1.242-3.399-0.269-4.931z"></path>
<path d="M30.933 8c0 0.884-0.716 1.6-1.6 1.6h-2.667c-0.141 0-0.277 0.056-0.377 0.156l-1.756 1.756v-1.379c0-0.295-0.239-0.533-0.533-0.533h-1.6c-0.884 0-1.6-0.716-1.6-1.6v-5.333c0-0.884 0.716-1.6 1.6-1.6h6.933c0.884 0 1.6 0.716 1.6 1.6zM29.333 0h-6.933c-1.472 0.002-2.665 1.195-2.667 2.667v5.333c0.002 1.472 1.195 2.665 2.667 2.667h1.067v2.133c-0 0.216 0.13 0.41 0.329 0.493 0.065 0.027 0.134 0.041 0.204 0.041 0.141 0 0.277-0.056 0.377-0.156l2.51-2.51h2.446c1.472-0.002 2.665-1.195 2.667-2.667v-5.333c-0.002-1.472-1.195-2.665-2.667-2.667z"></path>
<path d="M22.4 2.667h3.733v1.067h-3.733z"></path>
<path d="M27.2 2.667h2.133v1.067h-2.133z"></path>
<path d="M22.4 4.8h6.933v1.067h-6.933z"></path>
<path d="M22.4 6.933h3.733v1.067h-3.733z"></path>
<path d="M16.552 30.4v1.6h1.067v-1.418c1.312-1.767 1.399-4.159 0.22-6.018l-0.39-0.614-0.901 0.572 0.39 0.614c0.973 1.532 0.865 3.513-0.269 4.931-0.076 0.095-0.117 0.212-0.117 0.333z"></path>
<path d="M6.933 19.733c1.178 0 2.133-0.955 2.133-2.133v-0.779c1.041 0.328 2.159 0.328 3.2 0v0.779c0 1.178 0.955 2.133 2.133 2.133h0.427l-1.609 2.133h-4.951l-1.527-2.133zM6.4 11.733v-1.958l8.235-3.875c0.197 0.499 0.298 1.031 0.298 1.567v4.267c0 2.356-1.91 4.267-4.267 4.267s-4.267-1.91-4.267-4.267zM10.678 25.233l-1.646-2.3h3.379zM26.667 19.2h4.213c-0.255 1.241-1.347 2.132-2.613 2.133h-4.213c0.255-1.241 1.347-2.132 2.613-2.133zM1.067 22.4c0.002-1.472 1.195-2.665 2.667-2.667h1.697l4.803 6.71c0.099 0.138 0.257 0.221 0.427 0.223h0.007c0.168 0 0.326-0.079 0.427-0.213l5.067-6.72h1.44c1.472 0.002 2.665 1.195 2.667 2.667v4.267c0 0.295 0.239 0.533 0.534 0.533 0.193-0 0.372-0.105 0.466-0.274l2.514-4.525h3.058l-5.2 9.6h1.213l5.202-9.6h0.213c2.061-0.002 3.731-1.672 3.733-3.733 0-0.295-0.239-0.533-0.533-0.533h-4.8c-2.001 0.002-3.644 1.582-3.726 3.581l-1.607 2.894v-2.209c-0.002-2.061-1.672-3.731-3.733-3.733h-1.949l-0.014-0.011-0.010 0.011h-1.227c-0.589 0-1.067-0.478-1.067-1.067v-1.255c1.648-0.951 2.664-2.709 2.667-4.612v-4.267c-0.001-0.884-0.221-1.753-0.64-2.531-0.134-0.248-0.438-0.348-0.693-0.229l-9.027 4.247c-0.187 0.088-0.306 0.276-0.306 0.483v2.297c0.003 1.903 1.019 3.66 2.667 4.612v1.255c0 0.589-0.478 1.067-1.067 1.067h-3.2c-2.061 0.002-3.731 1.672-3.733 3.733v9.6h1.067z"></path>
</svg>