<svg id="icon-cadre" viewBox="0 0 27 32" width="100%" height="100%">
<title>cadre</title>
<path d="M10.371 14.625c0.671 0 1.217 0.546 1.217 1.217s-0.546 1.218-1.217 1.218-1.217-0.546-1.217-1.218c0-0.671 0.546-1.217 1.217-1.217zM10.371 17.997c1.188 0 2.155-0.966 2.155-2.155s-0.967-2.155-2.155-2.155c-1.188 0-2.155 0.967-2.155 2.155s0.966 2.155 2.155 2.155z"></path>
<path d="M10.575 8.519c0.455 0 0.825 0.37 0.825 0.825s-0.37 0.826-0.825 0.826c-0.455 0-0.825-0.37-0.825-0.826s0.37-0.825 0.825-0.825zM10.575 11.107c0.972 0 1.763-0.791 1.763-1.763s-0.791-1.763-1.763-1.763c-0.972 0-1.763 0.791-1.763 1.763s0.791 1.763 1.763 1.763z"></path>
<path d="M16.473 11.222c0.737 0 1.336 0.6 1.336 1.336s-0.599 1.336-1.336 1.336c-0.737 0-1.336-0.6-1.336-1.336s0.6-1.336 1.336-1.336zM16.473 14.832c1.254 0 2.274-1.020 2.274-2.274s-1.020-2.274-2.274-2.274-2.274 1.020-2.274 2.274c0 1.254 1.020 2.274 2.274 2.274z"></path>
<path d="M10.093 21.076c-0.259 0-0.469 0.21-0.469 0.469v0.64c0 0.259 0.21 0.469 0.469 0.469s0.469-0.21 0.469-0.469v-0.64c0-0.259-0.21-0.469-0.469-0.469z"></path>
<path d="M17.17 21.076c-0.259 0-0.469 0.21-0.469 0.469v0.64c0 0.259 0.21 0.469 0.469 0.469s0.469-0.21 0.469-0.469v-0.64c0-0.259-0.21-0.469-0.469-0.469z"></path>
<path d="M14.813 21.787c-0.195-0.171-0.491-0.151-0.661 0.044-0.125 0.144-0.315 0.226-0.52 0.226s-0.395-0.083-0.52-0.227c-0.171-0.195-0.467-0.215-0.662-0.044s-0.215 0.466-0.044 0.661c0.304 0.348 0.75 0.547 1.226 0.547s0.923-0.199 1.226-0.547c0.171-0.195 0.15-0.491-0.045-0.661z"></path>
<path d="M26.197 30.399l-2.68-2.68v-23.438l2.68-2.68zM22.579 27.445h-18.024v-22.889h18.024zM3.618 27.719l-2.68 2.68v-28.799l2.68 2.68zM27.131 0.411c-0.030-0.225-0.234-0.411-0.465-0.411h-17.606c-0.259 0-0.469 0.21-0.469 0.469s0.21 0.469 0.469 0.469h16.474l-2.68 2.68h-18.574l-2.68-2.68h5.585c0.259 0 0.469-0.21 0.469-0.469s-0.21-0.469-0.469-0.469h-6.716c-0.251 0-0.467 0.214-0.469 0.465v31.066c0 0.25 0.21 0.463 0.459 0.468 0.003 0 18.601 0 18.601 0 0.259 0 0.469-0.21 0.469-0.469s-0.21-0.469-0.469-0.469h-17.459l2.68-2.68h18.574l2.68 2.68h-4.599c-0.259 0-0.469 0.21-0.469 0.469s0.21 0.469 0.469 0.469h5.731c0.252 0.010 0.466-0.218 0.469-0.464v-31.067c0-0.020-0.002-0.039-0.004-0.058z"></path>
<path d="M6.728 15.286c0.048-0.274 0.25-0.589 0.67-0.647 0.298-0.041 0.484-0.361 0.37-0.641-0.139-0.342-0.017-0.604 0.068-0.731 0.151-0.225 0.406-0.365 0.665-0.365 0.145 0 0.286 0.043 0.421 0.127 0.255 0.16 0.603 0.033 0.695-0.253 0.106-0.328 0.407-0.548 0.752-0.548 0.341 0 0.649 0.224 0.754 0.548 0.092 0.286 0.441 0.413 0.695 0.253 0.273-0.172 0.631-0.159 0.892 0.036 0.293 0.218 0.399 0.595 0.262 0.933-0.113 0.279 0.073 0.6 0.37 0.641 0.284 0.039 0.522 0.22 0.627 0.489 0.147 0.377-0.007 0.806-0.365 0.995-0.266 0.141-0.331 0.506-0.129 0.729 0.211 0.234 0.267 0.558 0.139 0.847-0.103 0.231-0.343 0.478-0.71 0.478-0.214 0-0.396-0.077-0.582 0.079-0.11 0.092-0.172 0.233-0.167 0.377 0.011 0.283-0.108 0.467-0.21 0.573-0.151 0.157-0.374 0.251-0.594 0.251-0.241 0-0.465-0.12-0.612-0.308-0.185-0.238-0.555-0.238-0.74 0-0.198 0.255-0.442 0.308-0.612 0.308-0.221 0-0.443-0.094-0.594-0.251-0.101-0.105-0.22-0.29-0.209-0.573 0.010-0.278-0.233-0.509-0.511-0.484-0.141 0.012-0.268 0.041-0.409 0.008-0.005-0.001-0.010-0.001-0.014-0.002-0.264-0.066-0.441-0.266-0.525-0.455-0.062-0.14-0.173-0.502 0.139-0.847 0.202-0.224 0.137-0.588-0.128-0.729-0.376-0.199-0.458-0.563-0.409-0.837zM8.184 10.724c-0.039-0.088-0.108-0.315 0.088-0.533 0.202-0.223 0.136-0.589-0.129-0.729-0.297-0.157-0.272-0.443-0.258-0.527s0.089-0.361 0.423-0.407c0.298-0.041 0.483-0.362 0.37-0.641-0.083-0.205-0.023-0.363 0.042-0.459 0.151-0.225 0.45-0.299 0.685-0.151 0.255 0.16 0.603 0.033 0.695-0.253 0.103-0.321 0.389-0.345 0.474-0.345s0.371 0.025 0.474 0.345c0.092 0.286 0.44 0.413 0.696 0.253 0.402-0.253 0.904 0.173 0.726 0.61-0.113 0.279 0.072 0.6 0.37 0.641 0.26 0.036 0.38 0.214 0.417 0.384-0.143 0.128-0.264 0.278-0.363 0.444-0.196 0.334-0.277 0.712-0.236 1.090-0.28 0.121-0.504 0.305-0.675 0.523-0.057 0.073-0.115 0.151-0.156 0.234-0.107 0.19-0.179 0.395-0.214 0.608-0.276-0.287-0.647-0.47-1.062-0.511-0.003-0-0.007-0.001-0.010-0.001-0.429-0.043-0.871 0.075-1.216 0.335-0.010-0.044-0.016-0.092-0.013-0.146 0.011-0.301-0.273-0.539-0.567-0.476-0.236 0.051-0.465-0.069-0.562-0.289zM13.29 11.237c0.228-0.033 0.402-0.234 0.402-0.464 0-0.102-0.049-0.197-0.075-0.295-0.109-0.412 0.099-0.768 0.376-0.951 0.003-0.002 0.006-0.005 0.009-0.007 0.141-0.091 0.305-0.142 0.47-0.142 0.161 0 0.319 0.047 0.468 0.141 0.255 0.16 0.603 0.033 0.695-0.253 0.145-0.45 0.528-0.61 0.838-0.61s0.692 0.16 0.838 0.61c0.092 0.286 0.441 0.413 0.695 0.253 0.149-0.094 0.307-0.141 0.468-0.141 0.288 0 0.571 0.155 0.739 0.405 0.095 0.141 0.23 0.433 0.076 0.813-0.113 0.279 0.073 0.6 0.37 0.641 0.468 0.065 0.693 0.414 0.746 0.719s-0.037 0.71-0.455 0.931c-0.264 0.14-0.329 0.507-0.129 0.728 0.491 0.543 0.11 1.473-0.635 1.473-0.066 0-0.134-0.008-0.202-0.022-0.294-0.063-0.578 0.175-0.567 0.476 0.018 0.495-0.401 0.916-0.894 0.916-0.271 0-0.515-0.13-0.68-0.343-0.185-0.237-0.556-0.237-0.74 0-0.22 0.283-0.491 0.342-0.68 0.342-0.235 0-0.469-0.093-0.638-0.257 0.15-0.299 0.211-0.642 0.164-0.997-0.069-0.525-0.372-1.006-0.834-1.274-0.003-0.002-0.101-0.056-0.149-0.078 0.002-0.021 0.009-0.214 0.003-0.289-0.022-0.288-0.117-0.568-0.286-0.819-0.15-0.223-0.352-0.409-0.584-0.543-0.175-0.101-0.365-0.172-0.563-0.208 0.020-0.151 0.078-0.298 0.169-0.42 0.14-0.188 0.352-0.302 0.582-0.335 0.001-0 0.002-0.001 0.003-0.001zM18.486 24.245c-0.283 0.653-0.931 1.075-1.651 1.075h-6.406c-0.72 0-1.368-0.422-1.651-1.075-0.547-1.261-0.836-2.711-0.836-4.195 0-0.135 0.003-0.269 0.007-0.404 0.004 0.006 0.009 0.012 0.014 0.018 0.048 0.067 0.101 0.132 0.158 0.191 0.33 0.342 0.792 0.538 1.269 0.538 0.010 0 0.020-0.001 0.030-0.001 0.212-0.003 0.415-0.044 0.603-0.119 0.123-0.049 0.241-0.114 0.349-0.192 0.284 0.204 0.62 0.312 0.981 0.312 0.477 0 0.94-0.196 1.27-0.538 0.203-0.211 0.345-0.466 0.417-0.747 0.619-0.049 1.173-0.443 1.433-1.030 0.086-0.194 0.138-0.405 0.148-0.618 0.004-0.082 0.002-0.168-0.006-0.251 0.255 0.123 0.539 0.189 0.823 0.187 0.334-0.003 0.647-0.093 0.919-0.263 0.039-0.024 0.078-0.051 0.116-0.079 0.038 0.028 0.076 0.054 0.116 0.079 0.28 0.174 0.606 0.263 0.935 0.263 0.39 0 0.754-0.129 1.076-0.344 0.089-0.062 0.172-0.132 0.25-0.21 0.31 1.007 0.472 2.097 0.472 3.207 0 1.483-0.289 2.934-0.836 4.194zM6.27 18.079c0.164 0.37 0.445 0.663 0.786 0.842-0.035 0.375-0.052 0.753-0.052 1.129 0 1.611 0.316 3.19 0.914 4.568 0.432 0.996 1.418 1.639 2.511 1.639h6.406c1.094 0 2.079-0.644 2.512-1.639 0.597-1.377 0.913-2.957 0.913-4.568 0-1.417-0.245-2.808-0.71-4.061 0.559-0.118 1.042-0.504 1.284-1.050 0.223-0.501 0.207-1.051-0.025-1.524 0.43-0.41 0.629-1.004 0.521-1.621s-0.499-1.106-1.043-1.345c0.046-0.416-0.054-0.831-0.294-1.189-0.34-0.505-0.922-0.819-1.518-0.819-0.167 0-0.334 0.024-0.495 0.072-0.329-0.494-0.88-0.794-1.506-0.794s-1.176 0.3-1.506 0.794c-0.162-0.047-0.328-0.072-0.495-0.072-0.125 0-0.25 0.015-0.372 0.041-0.121-0.301-0.341-0.568-0.653-0.732 0.013-0.296-0.069-0.589-0.241-0.845-0.272-0.404-0.72-0.646-1.198-0.646-0.101 0-0.201 0.011-0.3 0.033-0.264-0.345-0.674-0.551-1.135-0.551s-0.871 0.206-1.135 0.551c-0.099-0.022-0.199-0.033-0.3-0.033-0.478 0-0.926 0.241-1.198 0.646-0.172 0.256-0.254 0.549-0.241 0.846-0.385 0.2-0.659 0.568-0.739 1.022s0.052 0.894 0.345 1.213c-0.145 0.353-0.143 0.752 0.020 1.118 0.205 0.463 0.631 0.781 1.115 0.846 0.002 0.006 0.004 0.011 0.006 0.016-0.548 0.018-1.076 0.312-1.39 0.777-0.225 0.334-0.321 0.721-0.283 1.109-0.506 0.23-0.87 0.692-0.972 1.27s0.082 1.137 0.479 1.527c-0.212 0.445-0.223 0.959-0.014 1.429z"></path>
</svg>